…
#### `prop.test` for each city in the dataset

``` r
output %>% 
  mutate(
    result = map2(output$unsolved_homicides, output$total_homicides, prop.test),
    result = map(result, tidy),
    result = map(result, ~select(.x, estimate, conf.low, conf.high))) %>% 
  unnest(cols = c(result))
```

    ## # A tibble: 50 × 6
    ##    city_state      total_homicides unsolved_homicides estimate conf.low conf.h…¹
    ##    <chr>                     <int>              <int>    <dbl>    <dbl>    <dbl>
    ##  1 Albuquerque, NM             378                146    0.386    0.337    0.438
    ##  2 Atlanta, GA                 973                373    0.383    0.353    0.415
    ##  3 Baltimore, MD              2827               1825    0.646    0.628    0.663
    ##  4 Baton Rouge, LA             424                196    0.462    0.414    0.511
    ##  5 Birmingham, AL              800                347    0.434    0.399    0.469
    ##  6 Boston, MA                  614                310    0.505    0.465    0.545
    ##  7 Buffalo, NY                 521                319    0.612    0.569    0.654
    ##  8 Charlotte, NC               687                206    0.300    0.266    0.336
    ##  9 Chicago, IL                5535               4073    0.736    0.724    0.747
    ## 10 Cincinnati, OH              694                309    0.445    0.408    0.483
    ## # … with 40 more rows, and abbreviated variable name ¹​conf.high
